…
test_performance <- rf_fit %>% collect_metrics()
test_performance

## # A tibble: 2 x 3
##   .metric .estimator .estimate
##   <chr>   <chr>          <dbl>
## 1 rmse    standard   28365.   
## 2 rsq     standard       0.887

# generate predictions from the test set
test_predictions <- rf_fit %>% collect_predictions()
test_predictions

## # A tibble: 732 x 4
##    id                 .pred  .row Sale_Price
##    <chr>              <dbl> <int>      <int>
##  1 train/test split 125487.     2     105000
##  2 train/test split 241768.     4     244000
##  3 train/test split 186196.     5     189900
##  4 train/test split 192475.     6     195500
##  5 train/test split 180287.     8     191500
##  6 train/test split 222542.    20     210000
##  7 train/test split 167088.    22     170000
##  8 train/test split 146749.    24     149000
##  9 train/test split 323575.    43     259000
## 10 train/test split 489205.    47     500000
## # ... with 722 more rows
…
