…
X_embedded_tbl <- py$X_embedded %>% as_tibble()
X_embedded_tbl

## # A tibble: 310 x 2
##        V1     V2
##     <dbl>  <dbl>
##  1  -9.40   4.00
##  2  13.1   -5.78
##  3  12.5   -5.39
##  4  -1.55  17.2 
##  5   9.81  -6.61
##  6  -9.03   7.27
##  7 -20.1  -13.5 
##  8 -18.5  -14.8 
##  9 -16.0   -6.87
## 10 -12.6  -11.6 
## # ... with 300 more rows
…
Data Preparation

employee_clustering_tbl <- tibble(
    Employee_Name = employee_names,
    cluster_af    = py$cluster_assignments_af,
    cluster_db    = py$cluster_assignments_db,
) %>%
    bind_cols(X_embedded_tbl) %>%
    left_join(hr_data_tbl)

employee_clustering_tbl

## # A tibble: 310 x 41
##    Employee_Name cluster_af cluster_db     V1     V2  EmpID MarriedID
##    <chr>              <int>      <int>  <dbl>  <dbl>  <dbl>     <dbl>
##  1 Brown, Mia            16         -1  -9.40   4.00 1.10e9         1
##  2 LaRotonda, W~         19         -1  13.1   -5.78 1.11e9         0
##  3 Steans, Tyro~         19         -1  12.5   -5.39 1.30e9         0
##  4 Howard, Este~         18         -1  -1.55  17.2  1.21e9         1
##  5 Singh, Nan            24         -1   9.81  -6.61 1.31e9         0
##  6 Smith, Leigh~         16         -1  -9.03   7.27 7.11e8         1
##  7 Bunbury, Jes~          7         -1 -20.1  -13.5  1.50e9         1
##  8 Carter, Mich~          7         -1 -18.5  -14.8  1.40e9         0
##  9 Dietrich, Je~          1         -1 -16.0   -6.87 1.41e9         0
## 10 Digitale, Al~         26         -1 -12.6  -11.6  1.31e9         1
## # ... with 300 more rows, and 34 more variables: MaritalStatusID <dbl>,
## #   GenderID <dbl>, EmpStatusID <dbl>, DeptID <dbl>, PerfScoreID <dbl>,
## #   FromDiversityJobFairID <dbl>, PayRate <dbl>, Termd <dbl>, PositionID <dbl>,
## #   Position <chr>, State <chr>, Zip <chr>, DOB <date>, Sex <chr>,
## #   MaritalDesc <chr>, CitizenDesc <chr>, HispanicLatino <chr>, RaceDesc <chr>,
## #   DateofHire <date>, DateofTermination <chr>, TermReason <chr>,
## #   EmploymentStatus <chr>, Department <chr>, ManagerName <chr>,
## #   ManagerID <dbl>, RecruitmentSource <chr>, PerformanceScore <chr>,
## #   EngagementSurvey <dbl>, EmpSatisfaction <dbl>, SpecialProjectsCount <dbl>,
…
