…
Use your linear model to predict sale prices; save the tibble as price_pred

Add a pipe and use mutate() to add a column with the observed sale prices; name it truth

lm_fit <- fit_data(Sale_Price ~ Gr_Liv_Area, 
                   model = lm_spec, 
                   data = ames)

price_pred <- lm_fit %>% 
  predict(new_data = ames) %>% 
  mutate(truth = ames$Sale_Price)

price_pred

## # A tibble: 2,930 x 2
##      .pred  truth
##      <dbl>  <int>
##  1 198255. 215000
##  2 113367. 105000
##  3 161731. 172000
##  4 248964. 244000
##  5 195239. 189900
##  6 192447. 195500
##  7 162736. 213500
##  8 156258. 191500
##  9 193787. 236500
## 10 214786. 189000
## # ... with 2,920 more rows
…
