…
penguin_split <- initial_split(penguins_df, strata = sex)
penguin_train <- training(penguin_split)
penguin_test <- testing(penguin_split)

Next, let’s create bootstrap resamples of the training data, to evaluate training models.

penguin_boot <- bootstraps(penguin_train)
penguin_boot

## # Bootstrap sampling 
## # A tibble: 25 x 2
##    splits           id         
##    <list>           <chr>      
##  1 <split [250/91]> Bootstrap01
##  2 <split [250/89]> Bootstrap02
##  3 <split [250/96]> Bootstrap03
##  4 <split [250/88]> Bootstrap04
##  5 <split [250/82]> Bootstrap05
##  6 <split [250/99]> Bootstrap06
##  7 <split [250/98]> Bootstrap07
##  8 <split [250/95]> Bootstrap08
##  9 <split [250/89]> Bootstrap09
## 10 <split [250/84]> Bootstrap10
## # ... with 15 more rows
…
Now we can add a model, and the fit to each of the resamples. First, we can fit the logistic regression model.

glm_rs <- penguin_wf %>%
  add_model(glm_spec) %>%
  fit_resamples(
    resamples = penguin_boot,
    control = control_resamples(save_pred = TRUE)
  )

glm_rs

## # Resampling results
## # Bootstrap sampling 
## # A tibble: 25 x 5
##    splits           id          .metrics        .notes          .predictions    
##    <list>           <chr>       <list>          <list>          <list>          
##  1 <split [250/91]> Bootstrap01 <tibble [2 x 3~ <tibble [0 x 1~ <tibble [91 x 5~
##  2 <split [250/89]> Bootstrap02 <tibble [2 x 3~ <tibble [0 x 1~ <tibble [89 x 5~
##  3 <split [250/96]> Bootstrap03 <tibble [2 x 3~ <tibble [0 x 1~ <tibble [96 x 5~
##  4 <split [250/88]> Bootstrap04 <tibble [2 x 3~ <tibble [0 x 1~ <tibble [88 x 5~
##  5 <split [250/82]> Bootstrap05 <tibble [2 x 3~ <tibble [0 x 1~ <tibble [82 x 5~
##  6 <split [250/99]> Bootstrap06 <tibble [2 x 3~ <tibble [0 x 1~ <tibble [99 x 5~
##  7 <split [250/98]> Bootstrap07 <tibble [2 x 3~ <tibble [0 x 1~ <tibble [98 x 5~
##  8 <split [250/95]> Bootstrap08 <tibble [2 x 3~ <tibble [0 x 1~ <tibble [95 x 5~
##  9 <split [250/89]> Bootstrap09 <tibble [2 x 3~ <tibble [0 x 1~ <tibble [89 x 5~
## 10 <split [250/84]> Bootstrap10 <tibble [2 x 3~ <tibble [0 x 1~ <tibble [84 x 5~
## # ... with 15 more rows

Second, we can fit the random forest model.

rf_rs <- penguin_wf %>%
  add_model(rf_spec) %>%
  fit_resamples(
    resamples = penguin_boot,
    control = control_resamples(save_pred = TRUE)
  )

rf_rs

## # Resampling results
## # Bootstrap sampling 
## # A tibble: 25 x 5
##    splits           id          .metrics        .notes          .predictions    
##    <list>           <chr>       <list>          <list>          <list>          
##  1 <split [250/91]> Bootstrap01 <tibble [2 x 3~ <tibble [0 x 1~ <tibble [91 x 5~
##  2 <split [250/89]> Bootstrap02 <tibble [2 x 3~ <tibble [0 x 1~ <tibble [89 x 5~
##  3 <split [250/96]> Bootstrap03 <tibble [2 x 3~ <tibble [0 x 1~ <tibble [96 x 5~
##  4 <split [250/88]> Bootstrap04 <tibble [2 x 3~ <tibble [0 x 1~ <tibble [88 x 5~
##  5 <split [250/82]> Bootstrap05 <tibble [2 x 3~ <tibble [0 x 1~ <tibble [82 x 5~
##  6 <split [250/99]> Bootstrap06 <tibble [2 x 3~ <tibble [0 x 1~ <tibble [99 x 5~
##  7 <split [250/98]> Bootstrap07 <tibble [2 x 3~ <tibble [0 x 1~ <tibble [98 x 5~
##  8 <split [250/95]> Bootstrap08 <tibble [2 x 3~ <tibble [0 x 1~ <tibble [95 x 5~
##  9 <split [250/89]> Bootstrap09 <tibble [2 x 3~ <tibble [0 x 1~ <tibble [89 x 5~
## 10 <split [250/84]> Bootstrap10 <tibble [2 x 3~ <tibble [0 x 1~ <tibble [84 x 5~
## # ... with 15 more rows
…
